{
  "trip": {
    "numberDestinations": 2,
    "daysStayMaxDiff": 1,
    "ordered": false,
    "dateStartVariation": 0,
    "maxTransportWaitHours": 8
  },
  "fetcher": {
    "name": "RandomFetcher",
    "seed": 0,
    "numberAccommodations": 6,
    "numberTransports": 6,
    "priceMinTransport": 300,
    "priceMaxTransport": 3000,
    "priceMinAccommodationDay": 50,
    "priceMaxAccommodationDay": 500
  },
  "optimizer": {
    "Name": "OptimizerMOEAD_ACO",
    "NumberAnts": 30,
    "EvaporationRate": 0.05,
    "DepositRate": 0.1,
    "PheromoneDefault": 1,
    "MinimumParetoImprovement": 1,
    "MaxStagnantGenerations": 1000,
    "PheromoneModifier": {
      "0": 1
    },
    "HeuristicModifier": {
      "0": 2
    },
    "ChooseBestComponentProb": 0.9,
    "CurrentSolutionInfluence": "0.05 * v_maxPheromones",
    "Distributed": true,
    "ImprovedGetComponents": true,
    "LimitPheromones": true,
    "MinPheromoneLimitPercentage": "1/(sqrt(len(p_componentsDf)))",
    "LocalSearchSteps": null,
    "LocalSearchFinal": null,
    "NumberGroups": 5,
    "NeighbourhoodSize": 4
  },
  "extraInfo": {
    "paretoApproximated": false,
    "instanceFile": "trip-d2-ds1-orF-s0-a6-t6-sf0.json",
    "maxOptimizationSeconds": 70,
    "maxStagnantGenerations": 1000
  },
  "results": [
    {
      "solutions": "{\"cost\":{\"t44-a70-t66-a29-t6\":0.9531803993,\"t2-a28-t24-a78-t48\":1.3684352151,\"t46-a70-t66-a29-t6\":0.8681500806,\"t2-a32-t30-a79-t54\":1.6996491941},\"time\":{\"t44-a70-t66-a29-t6\":2.1531531532,\"t2-a28-t24-a78-t48\":1.8851351351,\"t46-a70-t66-a29-t6\":2.286036036,\"t2-a32-t30-a79-t54\":1.8536036036},\"destinations\":{\"t44-a70-t66-a29-t6\":\"destStart->dest1->dest0->destStart\",\"t2-a28-t24-a78-t48\":\"destStart->dest0->dest1->destStart\",\"t46-a70-t66-a29-t6\":\"destStart->dest1->dest0->destStart\",\"t2-a32-t30-a79-t54\":\"destStart->dest0->dest1->destStart\"}}",
      "hypervolume": "{\"0.0\":0.0,\"1.8525350094\":1.8588746633,\"3.6870040894\":1.9307128899,\"5.4866364002\":1.9382486219,\"7.3037788868\":1.9382486219,\"9.1091630459\":1.9382486219,\"10.8899693489\":1.9382486219,\"12.6844580173\":1.9382486219,\"14.494623661\":1.9393468248,\"16.2974164486\":1.9393468248,\"18.0663859844\":1.9393468248,\"19.880058527\":1.9393468248,\"21.6799182892\":1.9393468248,\"23.4885129929\":1.9393468248,\"25.2680664062\":1.9393468248,\"27.0476806164\":1.9393468248,\"28.8551018238\":1.9393468248,\"30.6802175045\":1.9393468248,\"32.4800686836\":1.9393468248,\"34.2894291878\":1.9393468248,\"36.1065585613\":1.9393468248,\"37.9223303795\":1.9393468248,\"39.7354252338\":1.9393468248,\"41.5645780563\":1.9393468248,\"43.3652815819\":1.9393468248,\"45.1886770725\":1.9393468248,\"47.0049648285\":1.9393468248,\"48.7956635952\":1.9393468248,\"50.6080827713\":1.9393468248,\"52.4184749126\":1.9393468248,\"54.2057375908\":1.9393468248,\"56.005428791\":1.9393468248,\"57.8046281338\":1.9393468248,\"59.6383588314\":1.9393468248,\"61.474455595\":1.9393468248,\"63.2677111626\":1.9393468248,\"65.0804858208\":1.9393468248,\"66.9134712219\":1.9393468248,\"68.7206878662\":1.9393468248,\"70.5126519203\":1.9393468248}",
      "optimizationTime": 70.60025382041931,
      "datetime": "2018-08-15 02:11:07",
      "log": [],
      "iterations": 39,
      "stopCondition": "maxTime",
      "generationsWithoutImprovement": 31
    },
    {
      "solutions": "{\"cost\":{\"t44-a70-t66-a29-t6\":0.9531803993,\"t2-a28-t24-a78-t48\":1.3684352151,\"t2-a32-t30-a79-t54\":1.6996491941,\"t46-a70-t66-a29-t6\":0.8681500806,\"t2-a32-t30-a55-t60\":2.1216732044},\"time\":{\"t44-a70-t66-a29-t6\":2.1531531532,\"t2-a28-t24-a78-t48\":1.8851351351,\"t2-a32-t30-a79-t54\":1.8536036036,\"t46-a70-t66-a29-t6\":2.286036036,\"t2-a32-t30-a55-t60\":1.8513513514},\"destinations\":{\"t44-a70-t66-a29-t6\":\"destStart->dest1->dest0->destStart\",\"t2-a28-t24-a78-t48\":\"destStart->dest0->dest1->destStart\",\"t2-a32-t30-a79-t54\":\"destStart->dest0->dest1->destStart\",\"t46-a70-t66-a29-t6\":\"destStart->dest1->dest0->destStart\",\"t2-a32-t30-a55-t60\":\"destStart->dest0->dest1->destStart\"}}",
      "hypervolume": "{\"0.0\":0.0,\"1.8551068306\":1.9393468248,\"3.7121617794\":1.9393468248,\"5.4985508919\":1.9393468248,\"7.2757790089\":1.9393468248,\"9.0867130756\":1.9393468248,\"10.934773922\":1.9393468248,\"12.7166237831\":1.9393468248,\"14.5088567734\":1.9393468248,\"16.3256647587\":1.9393468248,\"18.1071388721\":1.9393468248,\"19.9224243164\":1.9393468248,\"21.7304804325\":1.9393468248,\"23.5042579174\":1.9393468248,\"25.289860487\":1.9393468248,\"27.0995976925\":1.9393468248,\"28.9035513401\":1.9393468248,\"30.7109644413\":1.9393468248,\"32.524574995\":1.9393468248,\"34.3387494087\":1.9393468248,\"36.2072579861\":1.9393468248,\"38.0225942135\":1.9441443319,\"39.8676521778\":1.9441443319,\"41.6589365005\":1.9441443319,\"43.4646112919\":1.9441443319,\"45.2603943348\":1.9441443319,\"47.0492832661\":1.9441443319,\"48.8743882179\":1.9441443319,\"50.6308860779\":1.9441443319,\"52.428958416\":1.9441443319,\"54.2246654034\":1.9441443319,\"56.0311889648\":1.9441443319,\"57.8293657303\":1.9441443319,\"59.6216187477\":1.9441443319,\"61.4292206764\":1.9441443319,\"63.2653181553\":1.9441443319,\"65.0775973797\":1.9441443319,\"66.8938136101\":1.9441443319,\"68.7459876537\":1.9441443319,\"70.590672493\":1.9441443319}",
      "optimizationTime": 71.09068274497986,
      "datetime": "2018-08-15 02:12:18",
      "log": [],
      "iterations": 39,
      "stopCondition": "maxTime",
      "generationsWithoutImprovement": 18
    },
    {
      "solutions": "{\"cost\":{\"t44-a70-t66-a29-t6\":0.9531803993,\"t2-a28-t24-a78-t48\":1.3684352151,\"t2-a39-t30-a48-t60\":2.1796112061,\"t46-a70-t66-a29-t6\":0.8681500806,\"t2-a32-t30-a79-t54\":1.6996491941},\"time\":{\"t44-a70-t66-a29-t6\":2.1531531532,\"t2-a28-t24-a78-t48\":1.8851351351,\"t2-a39-t30-a48-t60\":1.8513513514,\"t46-a70-t66-a29-t6\":2.286036036,\"t2-a32-t30-a79-t54\":1.8536036036},\"destinations\":{\"t44-a70-t66-a29-t6\":\"destStart->dest1->dest0->destStart\",\"t2-a28-t24-a78-t48\":\"destStart->dest0->dest1->destStart\",\"t2-a39-t30-a48-t60\":\"destStart->dest0->dest1->destStart\",\"t46-a70-t66-a29-t6\":\"destStart->dest1->dest0->destStart\",\"t2-a32-t30-a79-t54\":\"destStart->dest0->dest1->destStart\"}}",
      "hypervolume": "{\"0.0\":0.0,\"1.8713095188\":1.9288799035,\"3.6641597748\":1.9353799059,\"5.4591443539\":1.9353799059,\"7.2583479881\":1.9429156379,\"9.0923843384\":1.9429156379,\"10.8753921986\":1.9429156379,\"12.6859076023\":1.9429156379,\"14.4811468124\":1.9429156379,\"16.2468082905\":1.9429156379,\"18.0611095428\":1.9429156379,\"19.8434312344\":1.9429156379,\"21.6314706802\":1.9429156379,\"23.4271631241\":1.9429156379,\"25.2413964272\":1.9429156379,\"27.0416169167\":1.9429156379,\"28.8694508076\":1.9429156379,\"30.688678503\":1.9429156379,\"32.5004146099\":1.9429156379,\"34.300360918\":1.9429156379,\"36.1456799507\":1.9429156379,\"37.9983489513\":1.9429156379,\"39.7804679871\":1.9429156379,\"41.5972707272\":1.9429156379,\"43.4268081188\":1.9440138409,\"45.2221405506\":1.9440138409,\"47.0248410702\":1.9440138409,\"48.8138303757\":1.9440138409,\"50.6340243816\":1.9440138409,\"52.477124691\":1.9440138409,\"54.2553400993\":1.9440138409,\"56.0465857983\":1.9440138409,\"57.8719992638\":1.9440138409,\"59.6941335201\":1.9440138409,\"61.4932923317\":1.9440138409,\"63.3008112907\":1.9440138409,\"65.1045794487\":1.9440138409,\"66.9008190632\":1.9440138409,\"68.7124552727\":1.9440138409,\"70.4924254417\":1.9440138409}",
      "optimizationTime": 70.58208107948303,
      "datetime": "2018-08-15 02:13:28",
      "log": [],
      "iterations": 39,
      "stopCondition": "maxTime",
      "generationsWithoutImprovement": 15
    },
    {
      "solutions": "{\"cost\":{\"t44-a70-t66-a29-t6\":0.9531803993,\"t2-a28-t24-a78-t48\":1.3684352151,\"t46-a70-t66-a29-t6\":0.8681500806,\"t2-a32-t30-a79-t54\":1.6996491941,\"t2-a4-t30-a83-t60\":2.0788773554},\"time\":{\"t44-a70-t66-a29-t6\":2.1531531532,\"t2-a28-t24-a78-t48\":1.8851351351,\"t46-a70-t66-a29-t6\":2.286036036,\"t2-a32-t30-a79-t54\":1.8536036036,\"t2-a4-t30-a83-t60\":1.8513513514},\"destinations\":{\"t44-a70-t66-a29-t6\":\"destStart->dest1->dest0->destStart\",\"t2-a28-t24-a78-t48\":\"destStart->dest0->dest1->destStart\",\"t46-a70-t66-a29-t6\":\"destStart->dest1->dest0->destStart\",\"t2-a32-t30-a79-t54\":\"destStart->dest0->dest1->destStart\",\"t2-a4-t30-a83-t60\":\"destStart->dest0->dest1->destStart\"}}",
      "hypervolume": "{\"0.0\":0.0,\"1.836386919\":1.8588746633,\"3.6658551693\":1.9393468248,\"5.4784197807\":1.9393468248,\"7.2738807201\":1.9393468248,\"9.1040124893\":1.9393468248,\"10.9167068005\":1.9393468248,\"12.7239129543\":1.9393468248,\"14.5513131618\":1.9393468248,\"16.3731734753\":1.9393468248,\"18.1957728863\":1.9393468248,\"20.0142610073\":1.9393468248,\"21.8270354271\":1.9393468248,\"23.6523718834\":1.9393468248,\"25.4261868\":1.9393468248,\"27.2638683319\":1.9393468248,\"29.0314977169\":1.9393468248,\"30.8705193996\":1.9393468248,\"32.6890060902\":1.9393468248,\"34.5105354786\":1.9439864944,\"36.3192610741\":1.9439864944,\"38.0913481712\":1.9439864944,\"39.9349794388\":1.9439864944,\"41.7380814552\":1.9439864944,\"43.5373387337\":1.9439864944,\"45.3735516071\":1.9439864944,\"47.170019865\":1.9441364198,\"49.0182116032\":1.9441364198,\"50.9125370979\":1.9441364198,\"52.7244300842\":1.9441364198,\"54.5125658512\":1.9441364198,\"56.3136701584\":1.9442407189,\"58.1163468361\":1.9442407189,\"59.8766522408\":1.9442407189,\"61.7175245285\":1.9442407189,\"63.5493946075\":1.9442407189,\"65.3670134544\":1.9442407189,\"67.1581127644\":1.9442407189,\"68.9763939381\":1.9442407189,\"70.8181838989\":1.9442407189}",
      "optimizationTime": 71.07486319541931,
      "datetime": "2018-08-15 02:14:39",
      "log": [],
      "iterations": 39,
      "stopCondition": "maxTime",
      "generationsWithoutImprovement": 8
    },
    {
      "solutions": "{\"cost\":{\"t2-a28-t24-a78-t48\":1.3684352151,\"t44-a70-t66-a29-t6\":0.9531803993,\"t46-a70-t66-a29-t6\":0.8681500806,\"t2-a32-t30-a83-t60\":2.0440486337,\"t2-a32-t30-a79-t54\":1.6996491941},\"time\":{\"t2-a28-t24-a78-t48\":1.8851351351,\"t44-a70-t66-a29-t6\":2.1531531532,\"t46-a70-t66-a29-t6\":2.286036036,\"t2-a32-t30-a83-t60\":1.8513513514,\"t2-a32-t30-a79-t54\":1.8536036036},\"destinations\":{\"t2-a28-t24-a78-t48\":\"destStart->dest0->dest1->destStart\",\"t44-a70-t66-a29-t6\":\"destStart->dest1->dest0->destStart\",\"t46-a70-t66-a29-t6\":\"destStart->dest1->dest0->destStart\",\"t2-a32-t30-a83-t60\":\"destStart->dest0->dest1->destStart\",\"t2-a32-t30-a79-t54\":\"destStart->dest0->dest1->destStart\"}}",
      "hypervolume": "{\"0.0\":0.0,\"1.8453116417\":1.8588746633,\"3.6865370274\":1.9382486219,\"5.4911723137\":1.9382486219,\"7.2848751545\":1.9382486219,\"9.1040921211\":1.9382486219,\"10.9543151855\":1.9382486219,\"12.7599160671\":1.9382486219,\"14.5686330795\":1.9382486219,\"16.3887555599\":1.943220959,\"18.1979475021\":1.943220959,\"19.9976341724\":1.943220959,\"21.8005404472\":1.943220959,\"23.6339128017\":1.943220959,\"25.4351551533\":1.943220959,\"27.2479798794\":1.944319162,\"29.0589296818\":1.944319162,\"30.8670859337\":1.944319162,\"32.6563560963\":1.944319162,\"34.4866676331\":1.944319162,\"36.3111181259\":1.944319162,\"38.1023364067\":1.944319162,\"39.8791635036\":1.944319162,\"41.6965684891\":1.944319162,\"43.5330255032\":1.944319162,\"45.3462646008\":1.944319162,\"47.1824762821\":1.944319162,\"48.9649162292\":1.944319162,\"50.753677845\":1.944319162,\"52.5512208939\":1.944319162,\"54.3840882778\":1.944319162,\"56.173889637\":1.944319162,\"57.9579613209\":1.944319162,\"59.7829613686\":1.944319162,\"61.6141312122\":1.944319162,\"63.4228391647\":1.944319162,\"65.2439095974\":1.944319162,\"67.0882270336\":1.944319162,\"68.8886883259\":1.944319162,\"70.7008564472\":1.944319162}",
      "optimizationTime": 71.08517026901245,
      "datetime": "2018-08-15 02:15:51",
      "log": [],
      "iterations": 39,
      "stopCondition": "maxTime",
      "generationsWithoutImprovement": 24
    },
    {
      "solutions": "{\"cost\":{\"t44-a70-t66-a29-t6\":0.9531803993,\"t2-a28-t24-a78-t48\":1.3684352151,\"t46-a70-t66-a29-t6\":0.8681500806,\"t2-a32-t30-a79-t54\":1.6996491941},\"time\":{\"t44-a70-t66-a29-t6\":2.1531531532,\"t2-a28-t24-a78-t48\":1.8851351351,\"t46-a70-t66-a29-t6\":2.286036036,\"t2-a32-t30-a79-t54\":1.8536036036},\"destinations\":{\"t44-a70-t66-a29-t6\":\"destStart->dest1->dest0->destStart\",\"t2-a28-t24-a78-t48\":\"destStart->dest0->dest1->destStart\",\"t46-a70-t66-a29-t6\":\"destStart->dest1->dest0->destStart\",\"t2-a32-t30-a79-t54\":\"destStart->dest0->dest1->destStart\"}}",
      "hypervolume": "{\"0.0\":0.0,\"1.9027531147\":1.8588746633,\"3.7319145203\":1.9307128899,\"5.5672082901\":1.9307128899,\"7.338262558\":1.9382486219,\"9.1624135971\":1.9382486219,\"10.9748046398\":1.9382486219,\"12.7534029484\":1.9382486219,\"14.5667388439\":1.9382486219,\"16.3713331223\":1.9382486219,\"18.1775760651\":1.9382486219,\"20.0083842278\":1.9382486219,\"21.8371536732\":1.9382486219,\"23.640958786\":1.9382486219,\"25.4506525993\":1.9393468248,\"27.2778661251\":1.9393468248,\"29.181428194\":1.9393468248,\"31.0446476936\":1.9393468248,\"32.8920719624\":1.9393468248,\"34.7470140457\":1.9393468248,\"36.5278301239\":1.9393468248,\"38.3294966221\":1.9393468248,\"40.1704566479\":1.9393468248,\"41.9972362518\":1.9393468248,\"43.8109238148\":1.9393468248,\"45.6078279018\":1.9393468248,\"47.4492585659\":1.9393468248,\"49.278876543\":1.9393468248,\"51.0631036758\":1.9393468248,\"52.8758194447\":1.9393468248,\"54.6988708973\":1.9393468248,\"56.5009787083\":1.9393468248,\"58.32797575\":1.9393468248,\"60.1407072544\":1.9393468248,\"61.9556717873\":1.9393468248,\"63.782787323\":1.9393468248,\"65.596971035\":1.9393468248,\"67.3972651958\":1.9393468248,\"69.1997711658\":1.9393468248,\"70.9799821377\":1.9393468248}",
      "optimizationTime": 71.1111512184143,
      "datetime": "2018-08-15 02:17:02",
      "log": [],
      "iterations": 39,
      "stopCondition": "maxTime",
      "generationsWithoutImprovement": 25
    },
    {
      "solutions": "{\"cost\":{\"t44-a70-t66-a29-t6\":0.9531803993,\"t2-a28-t24-a78-t48\":1.3684352151,\"t46-a70-t66-a29-t6\":0.8681500806,\"t2-a4-t30-a48-t60\":2.0667355445,\"t2-a32-t30-a79-t54\":1.6996491941},\"time\":{\"t44-a70-t66-a29-t6\":2.1531531532,\"t2-a28-t24-a78-t48\":1.8851351351,\"t46-a70-t66-a29-t6\":2.286036036,\"t2-a4-t30-a48-t60\":1.8513513514,\"t2-a32-t30-a79-t54\":1.8536036036},\"destinations\":{\"t44-a70-t66-a29-t6\":\"destStart->dest1->dest0->destStart\",\"t2-a28-t24-a78-t48\":\"destStart->dest0->dest1->destStart\",\"t46-a70-t66-a29-t6\":\"destStart->dest1->dest0->destStart\",\"t2-a4-t30-a48-t60\":\"destStart->dest0->dest1->destStart\",\"t2-a32-t30-a79-t54\":\"destStart->dest0->dest1->destStart\"}}",
      "hypervolume": "{\"0.0\":0.0,\"1.8423445225\":1.8588746633,\"3.6532125473\":1.9367884342,\"5.418817997\":1.9367884342,\"7.2186465263\":1.9367884342,\"8.9712338448\":1.9367884342,\"10.7678289413\":1.9367884342,\"12.553640604\":1.9367884342,\"14.3633322716\":1.9367884342,\"16.1750257015\":1.9367884342,\"17.9868824482\":1.9367884342,\"19.7839980125\":1.9431698624,\"21.5694174767\":1.9431698624,\"23.3634102345\":1.9431698624,\"25.1688764095\":1.9431698624,\"26.9869229794\":1.9431698624,\"28.8194446564\":1.9431698624,\"30.6369059086\":1.9431698624,\"32.4472591877\":1.9431698624,\"34.2365238667\":1.9431698624,\"36.0066785812\":1.9431698624,\"37.7988905907\":1.9431698624,\"39.6236820221\":1.9431698624,\"41.415453434\":1.9431698624,\"43.2399508953\":1.9431698624,\"45.0437414646\":1.9431698624,\"46.8584592342\":1.9442680653,\"48.6779375076\":1.9442680653,\"50.4923489094\":1.9442680653,\"52.2674136162\":1.9442680653,\"54.0552284718\":1.9442680653,\"55.8295543194\":1.9442680653,\"57.6182863712\":1.9442680653,\"59.4057972431\":1.9442680653,\"61.2223887444\":1.9442680653,\"62.9963068962\":1.9442680653,\"64.7463297844\":1.9442680653,\"66.5780689716\":1.9442680653,\"68.3900096416\":1.9442680653,\"70.1579210758\":1.9442680653}",
      "optimizationTime": 70.58405637741089,
      "datetime": "2018-08-15 02:18:12",
      "log": [],
      "iterations": 39,
      "stopCondition": "maxTime",
      "generationsWithoutImprovement": 13
    },
    {
      "solutions": "{\"cost\":{\"t44-a70-t66-a29-t6\":0.9531803993,\"t2-a28-t24-a78-t48\":1.3684352151,\"t46-a70-t66-a29-t6\":0.8681500806,\"t2-a32-t30-a79-t54\":1.6996491941},\"time\":{\"t44-a70-t66-a29-t6\":2.1531531532,\"t2-a28-t24-a78-t48\":1.8851351351,\"t46-a70-t66-a29-t6\":2.286036036,\"t2-a32-t30-a79-t54\":1.8536036036},\"destinations\":{\"t44-a70-t66-a29-t6\":\"destStart->dest1->dest0->destStart\",\"t2-a28-t24-a78-t48\":\"destStart->dest0->dest1->destStart\",\"t46-a70-t66-a29-t6\":\"destStart->dest1->dest0->destStart\",\"t2-a32-t30-a79-t54\":\"destStart->dest0->dest1->destStart\"}}",
      "hypervolume": "{\"0.0\":0.0,\"1.8175981045\":1.8588746633,\"3.6307973862\":1.8588746633,\"5.5097157955\":1.8588746633,\"7.2635674477\":1.936787713,\"9.0724174976\":1.936787713,\"10.8562004566\":1.9382486219,\"12.653229475\":1.9382486219,\"14.4525680542\":1.9393468248,\"16.2748732567\":1.9393468248,\"18.0957226753\":1.9393468248,\"19.8859939575\":1.9393468248,\"21.7077810764\":1.9393468248,\"23.5030426979\":1.9393468248,\"25.3037629128\":1.9393468248,\"27.1107141972\":1.9393468248,\"28.9169085026\":1.9393468248,\"30.7052485943\":1.9393468248,\"32.5269510746\":1.9393468248,\"34.3540289402\":1.9393468248,\"36.149343729\":1.9393468248,\"37.9475693703\":1.9393468248,\"39.7351124287\":1.9393468248,\"41.5472950935\":1.9393468248,\"43.3505060673\":1.9393468248,\"45.1411137581\":1.9393468248,\"46.9759130478\":1.9393468248,\"48.7806060314\":1.9393468248,\"50.5696163177\":1.9393468248,\"52.3733494282\":1.9393468248,\"54.1414635181\":1.9393468248,\"55.9541618824\":1.9393468248,\"57.8167204857\":1.9393468248,\"59.6025929451\":1.9393468248,\"61.4246816635\":1.9393468248,\"63.209795475\":1.9393468248,\"65.0058460236\":1.9393468248,\"66.8557815552\":1.9393468248,\"68.6403064728\":1.9393468248,\"70.4421255589\":1.9393468248}",
      "optimizationTime": 70.62458729743958,
      "datetime": "2018-08-15 02:19:23",
      "log": [],
      "iterations": 39,
      "stopCondition": "maxTime",
      "generationsWithoutImprovement": 31
    },
    {
      "solutions": "{\"cost\":{\"t44-a70-t66-a29-t6\":0.9531803993,\"t2-a28-t24-a78-t48\":1.3684352151,\"t2-a32-t30-a48-t60\":2.0319068228,\"t2-a32-t30-a79-t54\":1.6996491941,\"t46-a70-t66-a29-t6\":0.8681500806},\"time\":{\"t44-a70-t66-a29-t6\":2.1531531532,\"t2-a28-t24-a78-t48\":1.8851351351,\"t2-a32-t30-a48-t60\":1.8513513514,\"t2-a32-t30-a79-t54\":1.8536036036,\"t46-a70-t66-a29-t6\":2.286036036},\"destinations\":{\"t44-a70-t66-a29-t6\":\"destStart->dest1->dest0->destStart\",\"t2-a28-t24-a78-t48\":\"destStart->dest0->dest1->destStart\",\"t2-a32-t30-a48-t60\":\"destStart->dest0->dest1->destStart\",\"t2-a32-t30-a79-t54\":\"destStart->dest0->dest1->destStart\",\"t46-a70-t66-a29-t6\":\"destStart->dest1->dest0->destStart\"}}",
      "hypervolume": "{\"0.0\":0.0,\"1.8659062386\":1.9443465084,\"3.6066167355\":1.9443465084,\"5.3917064667\":1.9443465084,\"7.1919126511\":1.9443465084,\"8.9984312057\":1.9443465084,\"10.800984621\":1.9443465084,\"12.6340899467\":1.9443465084,\"14.4273753166\":1.9443465084,\"16.2164297104\":1.9443465084,\"18.0375781059\":1.9443465084,\"19.8297951221\":1.9443465084,\"21.630572319\":1.9443465084,\"23.4251527786\":1.9443465084,\"25.2316389084\":1.9443465084,\"27.0355198383\":1.9443465084,\"28.8024845123\":1.9443465084,\"30.643424511\":1.9443465084,\"32.4501311779\":1.9443465084,\"34.2837126255\":1.9443465084,\"36.0838675499\":1.9443465084,\"37.9086897373\":1.9443465084,\"39.7418539524\":1.9443465084,\"41.5378620625\":1.9443465084,\"43.3446378708\":1.9443465084,\"45.1470124722\":1.9443465084,\"46.9242949486\":1.9443465084,\"48.713965416\":1.9443465084,\"50.5287981033\":1.9443465084,\"52.3723862171\":1.9443465084,\"54.1771600246\":1.9443465084,\"55.9808819294\":1.9443465084,\"57.8109078407\":1.9443465084,\"59.5867228508\":1.9443465084,\"61.3854687214\":1.9443465084,\"63.2173531055\":1.9443465084,\"65.0087444782\":1.9443465084,\"66.8289048672\":1.9443465084,\"68.6261279583\":1.9443465084,\"70.4178009033\":1.9443465084}",
      "optimizationTime": 70.60156297683716,
      "datetime": "2018-08-15 02:20:34",
      "log": [],
      "iterations": 39,
      "stopCondition": "maxTime",
      "generationsWithoutImprovement": 38
    },
    {
      "solutions": "{\"cost\":{\"t2-a28-t24-a78-t48\":1.3684352151,\"t46-a70-t66-a29-t6\":0.8681500806,\"t44-a70-t66-a29-t6\":0.9531803993,\"t2-a32-t30-a79-t54\":1.6996491941,\"t2-a4-t30-a48-t60\":2.0667355445},\"time\":{\"t2-a28-t24-a78-t48\":1.8851351351,\"t46-a70-t66-a29-t6\":2.286036036,\"t44-a70-t66-a29-t6\":2.1531531532,\"t2-a32-t30-a79-t54\":1.8536036036,\"t2-a4-t30-a48-t60\":1.8513513514},\"destinations\":{\"t2-a28-t24-a78-t48\":\"destStart->dest0->dest1->destStart\",\"t46-a70-t66-a29-t6\":\"destStart->dest1->dest0->destStart\",\"t44-a70-t66-a29-t6\":\"destStart->dest1->dest0->destStart\",\"t2-a32-t30-a79-t54\":\"destStart->dest0->dest1->destStart\",\"t2-a4-t30-a48-t60\":\"destStart->dest0->dest1->destStart\"}}",
      "hypervolume": "{\"0.0\":0.0,\"1.8354403973\":1.8588746633,\"3.6192913055\":1.9367884342,\"5.4254622459\":1.9382486219,\"7.2599208355\":1.9382486219,\"9.0725879669\":1.9382486219,\"10.8693361282\":1.9382486219,\"12.707221508\":1.9393468248,\"14.5309195518\":1.9393468248,\"16.3770890236\":1.9393468248,\"18.1843721867\":1.9442680653,\"20.0015647411\":1.9442680653,\"21.8222725391\":1.9442680653,\"23.6146948338\":1.9442680653,\"25.4240980148\":1.9442680653,\"27.2536082268\":1.9442680653,\"29.0855510235\":1.9442680653,\"30.8919203281\":1.9442680653,\"32.7247605324\":1.9442680653,\"34.5275733471\":1.9442680653,\"36.2826099396\":1.9442680653,\"38.0656278133\":1.9442680653,\"39.8712134361\":1.9442680653,\"41.675201416\":1.9442680653,\"43.5177476406\":1.9442680653,\"45.3037993908\":1.9442680653,\"47.119846344\":1.9442680653,\"48.8947679996\":1.9442680653,\"50.7034294605\":1.9442680653,\"52.5238106251\":1.9442680653,\"54.2918875217\":1.9442680653,\"56.1271388531\":1.9442680653,\"57.9637424946\":1.9442680653,\"59.8247990608\":1.9442680653,\"61.6191289425\":1.9442680653,\"63.4507157803\":1.9442680653,\"65.2740499973\":1.9442680653,\"67.0811238289\":1.9442680653,\"68.9082214832\":1.9442680653,\"70.7273058891\":1.9442680653}",
      "optimizationTime": 71.09867548942566,
      "datetime": "2018-08-15 02:21:45",
      "log": [],
      "iterations": 39,
      "stopCondition": "maxTime",
      "generationsWithoutImprovement": 29
    },
    {
      "solutions": "{\"cost\":{\"t44-a70-t66-a29-t6\":0.9531803993,\"t2-a28-t24-a78-t48\":1.3684352151,\"t46-a70-t66-a29-t6\":0.8681500806,\"t2-a32-t30-a79-t54\":1.6996491941,\"t2-a25-t30-a48-t60\":2.1130443533},\"time\":{\"t44-a70-t66-a29-t6\":2.1531531532,\"t2-a28-t24-a78-t48\":1.8851351351,\"t46-a70-t66-a29-t6\":2.286036036,\"t2-a32-t30-a79-t54\":1.8536036036,\"t2-a25-t30-a48-t60\":1.8513513514},\"destinations\":{\"t44-a70-t66-a29-t6\":\"destStart->dest1->dest0->destStart\",\"t2-a28-t24-a78-t48\":\"destStart->dest0->dest1->destStart\",\"t46-a70-t66-a29-t6\":\"destStart->dest1->dest0->destStart\",\"t2-a32-t30-a79-t54\":\"destStart->dest0->dest1->destStart\",\"t2-a25-t30-a48-t60\":\"destStart->dest0->dest1->destStart\"}}",
      "hypervolume": "{\"0.0\":0.0,\"1.8834197521\":1.8588746633,\"3.7673597336\":1.8588746633,\"5.6511025429\":1.8588746633,\"7.5338227749\":1.9307128899,\"9.3930430412\":1.9307128899,\"11.2446417809\":1.936787713,\"13.1235258579\":1.936787713,\"15.0206217766\":1.936787713,\"16.863474369\":1.936787713,\"18.7679820061\":1.9393468248,\"20.656185627\":1.9393468248,\"22.5225543976\":1.9393468248,\"24.3529863358\":1.9393468248,\"26.2337722778\":1.9393468248,\"28.1247053146\":1.9393468248,\"30.0658094883\":1.9393468248,\"31.9334950447\":1.9393468248,\"33.8100566864\":1.9441637662,\"35.6664013863\":1.9441637662,\"37.5493712425\":1.9441637662,\"39.4498934746\":1.9441637662,\"41.3051352501\":1.9441637662,\"43.1732480526\":1.9441637662,\"45.0429978371\":1.9441637662,\"46.9316425323\":1.9441637662,\"48.8097786903\":1.9441637662,\"50.6751480103\":1.9441637662,\"52.5780351162\":1.9441637662,\"54.4649107456\":1.9441637662,\"56.3405544758\":1.9441637662,\"58.218927145\":1.9441637662,\"60.1181833744\":1.9441637662,\"62.0049309731\":1.9441637662,\"63.8968918324\":1.9441637662,\"65.7697675228\":1.9441637662,\"67.6251001358\":1.9441637662,\"69.5449001789\":1.9441637662,\"71.4214167595\":1.9441637662}",
      "optimizationTime": 71.63085746765137,
      "datetime": "2018-08-28 09:32:35",
      "log": [],
      "iterations": 38,
      "stopCondition": "maxTime",
      "generationsWithoutImprovement": 20
    },
    {
      "solutions": "{\"cost\":{\"t44-a70-t66-a29-t6\":0.9531803993,\"t2-a28-t24-a78-t48\":1.3684352151,\"t46-a70-t66-a29-t6\":0.8681500806,\"t2-a32-t30-a79-t54\":1.6996491941,\"t2-a32-t30-a83-t60\":2.0440486337},\"time\":{\"t44-a70-t66-a29-t6\":2.1531531532,\"t2-a28-t24-a78-t48\":1.8851351351,\"t46-a70-t66-a29-t6\":2.286036036,\"t2-a32-t30-a79-t54\":1.8536036036,\"t2-a32-t30-a83-t60\":1.8513513514},\"destinations\":{\"t44-a70-t66-a29-t6\":\"destStart->dest1->dest0->destStart\",\"t2-a28-t24-a78-t48\":\"destStart->dest0->dest1->destStart\",\"t46-a70-t66-a29-t6\":\"destStart->dest1->dest0->destStart\",\"t2-a32-t30-a79-t54\":\"destStart->dest0->dest1->destStart\",\"t2-a32-t30-a83-t60\":\"destStart->dest0->dest1->destStart\"}}",
      "hypervolume": "{\"0.0\":0.0,\"1.9344916344\":1.9367884342,\"3.8071181774\":1.9367884342,\"5.6775820255\":1.9367884342,\"7.5444550514\":1.9367884342,\"9.4312746525\":1.9367884342,\"11.2882406712\":1.9382486219,\"13.1204047203\":1.9382486219,\"14.98913908\":1.9393468248,\"16.8461391926\":1.9393468248,\"18.7340860367\":1.9393468248,\"20.6108794212\":1.9393468248,\"22.4951562881\":1.9393468248,\"24.404394865\":1.9393468248,\"26.2899763584\":1.9393468248,\"28.1540412903\":1.9393468248,\"29.9712841511\":1.9393468248,\"31.7698562145\":1.9393468248,\"33.6106319427\":1.9393468248,\"35.4582598209\":1.9393468248,\"37.3143494129\":1.9393468248,\"39.1357319355\":1.9437024523,\"41.0060861111\":1.9437024523,\"42.8517925739\":1.9437024523,\"44.7312726974\":1.9437024523,\"46.5843632221\":1.9437024523,\"48.4532668591\":1.9437024523,\"50.2813527584\":1.9437024523,\"52.1173558235\":1.9440392069,\"53.9581120014\":1.9440392069,\"55.8302357197\":1.9440392069,\"57.6803424358\":1.9440392069,\"59.5435578823\":1.9440392069,\"61.372344017\":1.9440392069,\"63.1994230747\":1.944319162,\"65.0575785637\":1.944319162,\"66.9569752216\":1.944319162,\"68.8012273312\":1.944319162,\"70.671182394\":1.944319162}",
      "optimizationTime": 71.08209133148193,
      "datetime": "2018-08-28 09:33:46",
      "log": [],
      "iterations": 38,
      "stopCondition": "maxTime",
      "generationsWithoutImprovement": 4
    },
    {
      "solutions": "{\"cost\":{\"t44-a70-t66-a29-t6\":0.9531803993,\"t2-a28-t24-a78-t48\":1.3684352151,\"t46-a70-t66-a29-t6\":0.8681500806,\"t2-a32-t30-a79-t54\":1.6996491941,\"t2-a32-t30-a83-t60\":2.0440486337},\"time\":{\"t44-a70-t66-a29-t6\":2.1531531532,\"t2-a28-t24-a78-t48\":1.8851351351,\"t46-a70-t66-a29-t6\":2.286036036,\"t2-a32-t30-a79-t54\":1.8536036036,\"t2-a32-t30-a83-t60\":1.8513513514},\"destinations\":{\"t44-a70-t66-a29-t6\":\"destStart->dest1->dest0->destStart\",\"t2-a28-t24-a78-t48\":\"destStart->dest0->dest1->destStart\",\"t46-a70-t66-a29-t6\":\"destStart->dest1->dest0->destStart\",\"t2-a32-t30-a79-t54\":\"destStart->dest0->dest1->destStart\",\"t2-a32-t30-a83-t60\":\"destStart->dest0->dest1->destStart\"}}",
      "hypervolume": "{\"0.0\":0.0,\"1.8440005779\":1.8588746633,\"3.6667685509\":1.8588746633,\"5.4992825985\":1.8588746633,\"7.3495407104\":1.8588746633,\"9.1543793678\":1.8588746633,\"10.9592182636\":1.9367884342,\"12.803227663\":1.9367884342,\"14.6347105503\":1.9367884342,\"16.4225466251\":1.9367884342,\"18.2388622761\":1.941551857,\"20.0485546589\":1.9430120447,\"21.86804533\":1.9441102476,\"23.6738648415\":1.9441102476,\"25.478707552\":1.9441102476,\"27.2876708508\":1.9441102476,\"29.1001791954\":1.9441102476,\"30.9184830189\":1.9441102476,\"32.7614545822\":1.944319162,\"34.623554945\":1.944319162,\"36.4614286423\":1.944319162,\"38.3029341698\":1.944319162,\"40.1218047142\":1.944319162,\"41.9561715126\":1.944319162,\"43.8118395805\":1.944319162,\"45.6844294071\":1.944319162,\"47.5365540981\":1.944319162,\"49.3620643616\":1.944319162,\"51.2006537914\":1.944319162,\"53.0592069626\":1.944319162,\"54.9322619438\":1.944319162,\"56.78936553\":1.944319162,\"58.578098774\":1.944319162,\"60.3924703598\":1.944319162,\"62.1895642281\":1.944319162,\"63.9922983646\":1.944319162,\"65.8344898224\":1.944319162,\"67.6583402157\":1.944319162,\"69.4614377022\":1.944319162,\"71.2897522449\":1.944319162}",
      "optimizationTime": 71.59211254119873,
      "datetime": "2018-08-28 09:34:58",
      "log": [],
      "iterations": 39,
      "stopCondition": "maxTime",
      "generationsWithoutImprovement": 21
    },
    {
      "solutions": "{\"cost\":{\"t44-a70-t66-a29-t6\":0.9531803993,\"t2-a28-t24-a78-t48\":1.3684352151,\"t46-a70-t66-a29-t6\":0.8681500806,\"t2-a32-t30-a79-t54\":1.6996491941,\"t2-a32-t30-a48-t60\":2.0319068228},\"time\":{\"t44-a70-t66-a29-t6\":2.1531531532,\"t2-a28-t24-a78-t48\":1.8851351351,\"t46-a70-t66-a29-t6\":2.286036036,\"t2-a32-t30-a79-t54\":1.8536036036,\"t2-a32-t30-a48-t60\":1.8513513514},\"destinations\":{\"t44-a70-t66-a29-t6\":\"destStart->dest1->dest0->destStart\",\"t2-a28-t24-a78-t48\":\"destStart->dest0->dest1->destStart\",\"t46-a70-t66-a29-t6\":\"destStart->dest1->dest0->destStart\",\"t2-a32-t30-a79-t54\":\"destStart->dest0->dest1->destStart\",\"t2-a32-t30-a48-t60\":\"destStart->dest0->dest1->destStart\"}}",
      "hypervolume": "{\"0.0\":0.0,\"1.888256073\":1.936787713,\"3.7473602295\":1.9382486219,\"5.5800375938\":1.9382486219,\"7.4231052399\":1.9382486219,\"9.2817308903\":1.9393468248,\"11.1012113094\":1.9393468248,\"12.897964716\":1.9393468248,\"14.7141506672\":1.9393468248,\"16.5153594017\":1.9393468248,\"18.3954126835\":1.9441443319,\"20.2599973679\":1.9443465084,\"22.0927510262\":1.9443465084,\"23.9508733749\":1.9443465084,\"25.7933392525\":1.9443465084,\"27.6690280437\":1.9443465084,\"29.5481145382\":1.9443465084,\"31.403475523\":1.9443465084,\"33.2964360714\":1.9443465084,\"35.1401839256\":1.9443465084,\"36.9698588848\":1.9443465084,\"38.8048820496\":1.9443465084,\"40.6591930389\":1.9443465084,\"42.5468375683\":1.9443465084,\"44.365606308\":1.9443465084,\"46.195738554\":1.9443465084,\"48.0273954868\":1.9443465084,\"49.835631609\":1.9443465084,\"51.6637961864\":1.9443465084,\"53.4684514999\":1.9443465084,\"55.3105633259\":1.9443465084,\"57.0940058231\":1.9443465084,\"58.9161634445\":1.9443465084,\"60.7319228649\":1.9443465084,\"62.5669915676\":1.9443465084,\"64.3791708946\":1.9443465084,\"66.2073087692\":1.9443465084,\"67.9871032238\":1.9443465084,\"69.844227314\":1.9443465084,\"71.7163767815\":1.9443465084}",
      "optimizationTime": 72.0996572971344,
      "datetime": "2018-08-28 09:36:10",
      "log": [],
      "iterations": 39,
      "stopCondition": "maxTime",
      "generationsWithoutImprovement": 28
    },
    {
      "solutions": "{\"cost\":{\"t44-a70-t66-a29-t6\":0.9531803993,\"t2-a28-t24-a78-t48\":1.3684352151,\"t46-a70-t66-a29-t6\":0.8681500806,\"t2-a4-t30-a69-t60\":2.1300090631,\"t2-a32-t30-a79-t54\":1.6996491941},\"time\":{\"t44-a70-t66-a29-t6\":2.1531531532,\"t2-a28-t24-a78-t48\":1.8851351351,\"t46-a70-t66-a29-t6\":2.286036036,\"t2-a4-t30-a69-t60\":1.8513513514,\"t2-a32-t30-a79-t54\":1.8536036036},\"destinations\":{\"t44-a70-t66-a29-t6\":\"destStart->dest1->dest0->destStart\",\"t2-a28-t24-a78-t48\":\"destStart->dest0->dest1->destStart\",\"t46-a70-t66-a29-t6\":\"destStart->dest1->dest0->destStart\",\"t2-a4-t30-a69-t60\":\"destStart->dest0->dest1->destStart\",\"t2-a32-t30-a79-t54\":\"destStart->dest0->dest1->destStart\"}}",
      "hypervolume": "{\"0.0\":0.0,\"1.8654644489\":1.8588746633,\"3.6872935295\":1.8588746633,\"5.5067772865\":1.9367884342,\"7.3206255436\":1.9367884342,\"9.1547641754\":1.9367884342,\"10.9695014954\":1.9367884342,\"12.7881882191\":1.9367884342,\"14.6261270046\":1.9367884342,\"16.4567465782\":1.9367884342,\"18.2942545414\":1.9367884342,\"20.1569404602\":1.9367884342,\"21.984951973\":1.9367884342,\"23.8107469082\":1.9367884342,\"25.6388278008\":1.9367884342,\"27.4732713699\":1.9367884342,\"29.2878978252\":1.9415671668,\"31.1211519241\":1.9415671668,\"32.9262964725\":1.9415671668,\"34.7604100704\":1.9415671668,\"36.5795900822\":1.9430273545,\"38.4009518623\":1.9430273545,\"40.2211105824\":1.9430273545,\"42.014736414\":1.9430273545,\"43.8239235878\":1.9430273545,\"45.6236214638\":1.9430273545,\"47.4492506981\":1.9430273545,\"49.2702765465\":1.9430273545,\"51.0874419212\":1.9430273545,\"52.9165678024\":1.9430273545,\"54.7661027908\":1.9430273545,\"56.6074442863\":1.9430273545,\"58.441750288\":1.9430273545,\"60.2928130627\":1.9430273545,\"62.1607711315\":1.9441255574,\"64.008030653\":1.9441255574,\"65.8666427135\":1.9441255574,\"67.7178008556\":1.9441255574,\"69.5721757412\":1.9441255574,\"71.4528310299\":1.9441255574}",
      "optimizationTime": 71.57949495315552,
      "datetime": "2018-08-28 09:37:22",
      "log": [],
      "iterations": 39,
      "stopCondition": "maxTime",
      "generationsWithoutImprovement": 5
    },
    {
      "solutions": "{\"cost\":{\"t44-a70-t66-a29-t6\":0.9531803993,\"t2-a28-t24-a78-t48\":1.3684352151,\"t46-a70-t66-a29-t6\":0.8681500806,\"t2-a32-t30-a79-t54\":1.6996491941},\"time\":{\"t44-a70-t66-a29-t6\":2.1531531532,\"t2-a28-t24-a78-t48\":1.8851351351,\"t46-a70-t66-a29-t6\":2.286036036,\"t2-a32-t30-a79-t54\":1.8536036036},\"destinations\":{\"t44-a70-t66-a29-t6\":\"destStart->dest1->dest0->destStart\",\"t2-a28-t24-a78-t48\":\"destStart->dest0->dest1->destStart\",\"t46-a70-t66-a29-t6\":\"destStart->dest1->dest0->destStart\",\"t2-a32-t30-a79-t54\":\"destStart->dest0->dest1->destStart\"}}",
      "hypervolume": "{\"0.0\":0.0,\"1.9411447048\":1.936787713,\"3.7927165031\":1.9382486219,\"5.6687266827\":1.9382486219,\"7.5007650852\":1.9382486219,\"9.3668622971\":1.9382486219,\"11.2259597778\":1.9382486219,\"13.0406844616\":1.9382486219,\"14.8698134422\":1.9382486219,\"16.7338368893\":1.9382486219,\"18.552321434\":1.9382486219,\"20.3903670311\":1.9382486219,\"22.2256901264\":1.9382486219,\"24.0578536987\":1.9393468248,\"25.869051218\":1.9393468248,\"27.7027192116\":1.9393468248,\"29.526070118\":1.9393468248,\"31.3579361439\":1.9393468248,\"33.1812038422\":1.9393468248,\"35.0244584084\":1.9393468248,\"36.8809959888\":1.9393468248,\"38.716583252\":1.9393468248,\"40.570715189\":1.9393468248,\"42.4050431252\":1.9393468248,\"44.2585008144\":1.9393468248,\"46.1583549976\":1.9393468248,\"47.9764564037\":1.9393468248,\"49.8234584332\":1.9393468248,\"51.6989407539\":1.9393468248,\"53.5808331966\":1.9393468248,\"55.4488012791\":1.9393468248,\"57.3188967705\":1.9393468248,\"59.1657648087\":1.9393468248,\"61.0219466686\":1.9393468248,\"62.8153374195\":1.9393468248,\"64.6395068169\":1.9393468248,\"66.4204139709\":1.9393468248,\"68.2221105099\":1.9393468248,\"70.0582532883\":1.9393468248}",
      "optimizationTime": 70.57015085220337,
      "datetime": "2018-08-28 09:38:32",
      "log": [],
      "iterations": 38,
      "stopCondition": "maxTime",
      "generationsWithoutImprovement": 25
    },
    {
      "solutions": "{\"cost\":{\"t44-a70-t66-a29-t6\":0.9531803993,\"t2-a28-t24-a78-t48\":1.3684352151,\"t46-a70-t66-a29-t6\":0.8681500806,\"t2-a32-t30-a79-t54\":1.6996491941,\"t2-a32-t30-a48-t60\":2.0319068228},\"time\":{\"t44-a70-t66-a29-t6\":2.1531531532,\"t2-a28-t24-a78-t48\":1.8851351351,\"t46-a70-t66-a29-t6\":2.286036036,\"t2-a32-t30-a79-t54\":1.8536036036,\"t2-a32-t30-a48-t60\":1.8513513514},\"destinations\":{\"t44-a70-t66-a29-t6\":\"destStart->dest1->dest0->destStart\",\"t2-a28-t24-a78-t48\":\"destStart->dest0->dest1->destStart\",\"t46-a70-t66-a29-t6\":\"destStart->dest1->dest0->destStart\",\"t2-a32-t30-a79-t54\":\"destStart->dest0->dest1->destStart\",\"t2-a32-t30-a48-t60\":\"destStart->dest0->dest1->destStart\"}}",
      "hypervolume": "{\"0.0\":0.0,\"1.8525176048\":1.8588746633,\"3.6791574955\":1.9346894794,\"5.5402569771\":1.9346894794,\"7.3621573448\":1.9382486219,\"9.1997828484\":1.9382486219,\"11.0188219547\":1.9382486219,\"12.900490284\":1.9393468248,\"14.7267346382\":1.9393468248,\"16.5718898773\":1.9393468248,\"18.381664753\":1.9393468248,\"20.2470970154\":1.9393468248,\"22.0941400528\":1.9393468248,\"23.9240818024\":1.9393468248,\"25.7439155579\":1.9393468248,\"27.5457162857\":1.9393468248,\"29.3598423004\":1.9393468248,\"31.1580872536\":1.9393468248,\"33.0021324158\":1.9393468248,\"34.8569004536\":1.9393468248,\"36.6944255829\":1.9393468248,\"38.5240981579\":1.9393468248,\"40.3690974712\":1.9393468248,\"42.1834306717\":1.9393468248,\"44.0595831871\":1.9393468248,\"45.9212706089\":1.9393468248,\"47.80727005\":1.9393468248,\"49.6676690578\":1.9393468248,\"51.5246953964\":1.9393468248,\"53.368688345\":1.9443465084,\"55.2832052708\":1.9443465084,\"57.1561362743\":1.9443465084,\"59.0442478657\":1.9443465084,\"60.9352583885\":1.9443465084,\"62.8066980839\":1.9443465084,\"64.7040250301\":1.9443465084,\"66.5634989738\":1.9443465084,\"68.4927697182\":1.9443465084,\"70.4065878391\":1.9443465084}",
      "optimizationTime": 70.59221911430359,
      "datetime": "2018-08-28 09:39:43",
      "log": [],
      "iterations": 38,
      "stopCondition": "maxTime",
      "generationsWithoutImprovement": 9
    },
    {
      "solutions": "{\"cost\":{\"t44-a70-t66-a29-t6\":0.9531803993,\"t2-a28-t24-a78-t48\":1.3684352151,\"t46-a70-t66-a29-t6\":0.8681500806,\"t2-a4-t30-a79-t54\":1.7344779158},\"time\":{\"t44-a70-t66-a29-t6\":2.1531531532,\"t2-a28-t24-a78-t48\":1.8851351351,\"t46-a70-t66-a29-t6\":2.286036036,\"t2-a4-t30-a79-t54\":1.8536036036},\"destinations\":{\"t44-a70-t66-a29-t6\":\"destStart->dest1->dest0->destStart\",\"t2-a28-t24-a78-t48\":\"destStart->dest0->dest1->destStart\",\"t46-a70-t66-a29-t6\":\"destStart->dest1->dest0->destStart\",\"t2-a4-t30-a79-t54\":\"destStart->dest0->dest1->destStart\"}}",
      "hypervolume": "{\"0.0\":0.0,\"1.9149782658\":1.8588746633,\"3.767717123\":1.8588746633,\"5.6150033474\":1.9346894794,\"7.4749290943\":1.9346894794,\"9.3596599102\":1.9346894794,\"11.217633009\":1.9367884342,\"13.1049034595\":1.9367884342,\"14.9874284267\":1.9367884342,\"16.8165562153\":1.9367884342,\"18.7003827095\":1.9382486219,\"20.5863211155\":1.9382486219,\"22.4715583324\":1.9382486219,\"24.349136591\":1.9382486219,\"26.1901552677\":1.9382486219,\"28.0267584324\":1.9382486219,\"29.8958580494\":1.9382486219,\"31.7526688576\":1.9382486219,\"33.637172699\":1.9382486219,\"35.5448610783\":1.9382486219,\"37.4273650646\":1.9382486219,\"39.2562866211\":1.9382486219,\"41.0989656448\":1.9382486219,\"42.9495694637\":1.9382486219,\"44.8643796444\":1.9382486219,\"46.7311477661\":1.9382486219,\"48.6001493931\":1.9382486219,\"50.4955356121\":1.9382486219,\"52.373789072\":1.9382486219,\"54.2394416332\":1.9382486219,\"56.1280817986\":1.9382486219,\"57.9836986065\":1.9382486219,\"59.8670473099\":1.9382486219,\"61.7232301235\":1.9382486219,\"63.5593163967\":1.9382486219,\"65.4029016495\":1.9382486219,\"67.2435572147\":1.9382486219,\"69.1240854263\":1.9382486219,\"70.9767305851\":1.9382486219}",
      "optimizationTime": 71.08208346366882,
      "datetime": "2018-08-28 09:40:54",
      "log": [],
      "iterations": 38,
      "stopCondition": "maxTime",
      "generationsWithoutImprovement": 28
    },
    {
      "solutions": "{\"cost\":{\"t2-a28-t24-a78-t48\":1.3684352151,\"t46-a70-t66-a29-t6\":0.8681500806,\"t44-a70-t66-a29-t6\":0.9531803993,\"t2-a32-t30-a79-t54\":1.6996491941,\"t2-a4-t30-a48-t60\":2.0667355445},\"time\":{\"t2-a28-t24-a78-t48\":1.8851351351,\"t46-a70-t66-a29-t6\":2.286036036,\"t44-a70-t66-a29-t6\":2.1531531532,\"t2-a32-t30-a79-t54\":1.8536036036,\"t2-a4-t30-a48-t60\":1.8513513514},\"destinations\":{\"t2-a28-t24-a78-t48\":\"destStart->dest0->dest1->destStart\",\"t46-a70-t66-a29-t6\":\"destStart->dest1->dest0->destStart\",\"t44-a70-t66-a29-t6\":\"destStart->dest1->dest0->destStart\",\"t2-a32-t30-a79-t54\":\"destStart->dest0->dest1->destStart\",\"t2-a4-t30-a48-t60\":\"destStart->dest0->dest1->destStart\"}}",
      "hypervolume": "{\"0.0\":0.0,\"1.9211878777\":1.8588746633,\"3.7834599018\":1.936787713,\"5.6355853081\":1.9367884342,\"7.5082609653\":1.9382486219,\"9.4022819996\":1.9382486219,\"11.294141531\":1.9382486219,\"13.1255760193\":1.9382486219,\"14.9803528786\":1.9382486219,\"16.8513457775\":1.9382486219,\"18.7557907104\":1.9382486219,\"20.6262936592\":1.9382486219,\"22.5210077763\":1.9382486219,\"24.403128624\":1.9382486219,\"26.3162662983\":1.9382486219,\"28.2091383934\":1.9382486219,\"30.1219851971\":1.9382486219,\"31.9984772205\":1.9382486219,\"33.9131984711\":1.9382486219,\"35.7942018509\":1.9382486219,\"37.6979651451\":1.9393468248,\"39.6045687199\":1.9440392069,\"41.4662218094\":1.9440392069,\"43.3678822517\":1.9440392069,\"45.2521078587\":1.9440392069,\"47.1470472813\":1.9442680653,\"49.0445435047\":1.9442680653,\"50.9361059666\":1.9442680653,\"52.852748394\":1.9442680653,\"54.7167096138\":1.9442680653,\"56.5499083996\":1.9442680653,\"58.398252964\":1.9442680653,\"60.2660036087\":1.9442680653,\"62.1256802082\":1.9442680653,\"63.9532210827\":1.9442680653,\"65.8110175133\":1.9442680653,\"67.6614706516\":1.9442680653,\"69.544239521\":1.9442680653,\"71.4693996906\":1.9442680653}",
      "optimizationTime": 71.58708786964417,
      "datetime": "2018-08-28 09:42:06",
      "log": [],
      "iterations": 38,
      "stopCondition": "maxTime",
      "generationsWithoutImprovement": 13
    },
    {
      "solutions": "{\"cost\":{\"t44-a70-t66-a29-t6\":0.9531803993,\"t2-a28-t24-a78-t48\":1.3684352151,\"t46-a70-t66-a29-t6\":0.8681500806,\"t2-a32-t30-a79-t54\":1.6996491941,\"t2-a32-t30-a48-t60\":2.0319068228},\"time\":{\"t44-a70-t66-a29-t6\":2.1531531532,\"t2-a28-t24-a78-t48\":1.8851351351,\"t46-a70-t66-a29-t6\":2.286036036,\"t2-a32-t30-a79-t54\":1.8536036036,\"t2-a32-t30-a48-t60\":1.8513513514},\"destinations\":{\"t44-a70-t66-a29-t6\":\"destStart->dest1->dest0->destStart\",\"t2-a28-t24-a78-t48\":\"destStart->dest0->dest1->destStart\",\"t46-a70-t66-a29-t6\":\"destStart->dest1->dest0->destStart\",\"t2-a32-t30-a79-t54\":\"destStart->dest0->dest1->destStart\",\"t2-a32-t30-a48-t60\":\"destStart->dest0->dest1->destStart\"}}",
      "hypervolume": "{\"0.0\":0.0,\"1.8946321011\":1.8588746633,\"3.7753543854\":1.9346894794,\"5.6716191769\":1.9346894794,\"7.5608391762\":1.9393468248,\"9.4617881775\":1.9393468248,\"11.3292775154\":1.9393468248,\"13.1981585026\":1.9443465084,\"15.0793893337\":1.9443465084,\"16.9605841637\":1.9443465084,\"18.8433876038\":1.9443465084,\"20.7089152336\":1.9443465084,\"22.5877375603\":1.9443465084,\"24.47366786\":1.9443465084,\"26.3667814732\":1.9443465084,\"28.2565736771\":1.9443465084,\"30.1100518703\":1.9443465084,\"32.0020883083\":1.9443465084,\"33.8503026962\":1.9443465084,\"35.7123537064\":1.9443465084,\"37.5471408367\":1.9443465084,\"39.395329237\":1.9443465084,\"41.266065836\":1.9443465084,\"43.1246902943\":1.9443465084,\"44.9708712101\":1.9443465084,\"46.8264648914\":1.9443465084,\"48.714294672\":1.9443465084,\"50.5818166733\":1.9443465084,\"52.4524862766\":1.9443465084,\"54.3337216377\":1.9443465084,\"56.2100749016\":1.9443465084,\"58.0691154003\":1.9443465084,\"59.9374279976\":1.9443465084,\"61.8338212967\":1.9443465084,\"63.6675188541\":1.9443465084,\"65.559150219\":1.9443465084,\"67.4363121986\":1.9443465084,\"69.3206825256\":1.9443465084,\"71.2102777958\":1.9443465084}",
      "optimizationTime": 71.58707976341248,
      "datetime": "2018-08-28 09:43:17",
      "log": [],
      "iterations": 38,
      "stopCondition": "maxTime",
      "generationsWithoutImprovement": 31
    },
    {
      "solutions": "{\"cost\":{\"t44-a70-t66-a29-t6\":0.9531803993,\"t2-a28-t24-a78-t48\":1.3684352151,\"t2-a32-t30-a48-t60\":2.0319068228,\"t46-a70-t66-a29-t6\":0.8681500806,\"t2-a32-t30-a79-t54\":1.6996491941},\"time\":{\"t44-a70-t66-a29-t6\":2.1531531532,\"t2-a28-t24-a78-t48\":1.8851351351,\"t2-a32-t30-a48-t60\":1.8513513514,\"t46-a70-t66-a29-t6\":2.286036036,\"t2-a32-t30-a79-t54\":1.8536036036},\"destinations\":{\"t44-a70-t66-a29-t6\":\"destStart->dest1->dest0->destStart\",\"t2-a28-t24-a78-t48\":\"destStart->dest0->dest1->destStart\",\"t2-a32-t30-a48-t60\":\"destStart->dest0->dest1->destStart\",\"t46-a70-t66-a29-t6\":\"destStart->dest1->dest0->destStart\",\"t2-a32-t30-a79-t54\":\"destStart->dest0->dest1->destStart\"}}",
      "hypervolume": "{\"0.0\":0.0,\"1.9724302292\":1.9357125735,\"3.8634889126\":1.939689163,\"5.7269864082\":1.939689163,\"7.5688049793\":1.939689163,\"9.388507843\":1.9400625692,\"11.238771677\":1.9417881178,\"13.1231889725\":1.9417881178,\"14.9708352089\":1.9417881178,\"16.7997016907\":1.9417881178,\"18.6356713772\":1.9417881178,\"20.493976593\":1.9417881178,\"22.3624894619\":1.9417881178,\"24.2611672878\":1.9417881178,\"26.1404058933\":1.9417881178,\"28.0509572029\":1.9432483055,\"29.9175872803\":1.9432483055,\"31.7992143631\":1.9432483055,\"33.6452772617\":1.9432483055,\"35.5023050308\":1.9443465084,\"37.4099359512\":1.9443465084,\"39.26897192\":1.9443465084,\"41.140547514\":1.9443465084,\"42.9974906445\":1.9443465084,\"44.9062516689\":1.9443465084,\"46.8618443012\":1.9443465084,\"48.7012236118\":1.9443465084,\"50.5829133987\":1.9443465084,\"52.4585156441\":1.9443465084,\"54.322735548\":1.9443465084,\"56.1817934513\":1.9443465084,\"58.0538537502\":1.9443465084,\"59.9211909771\":1.9443465084,\"61.8080720901\":1.9443465084,\"63.6761732101\":1.9443465084,\"65.5475854874\":1.9443465084,\"67.4140429497\":1.9443465084,\"69.3136715889\":1.9443465084,\"71.1645326614\":1.9443465084}",
      "optimizationTime": 71.57648873329163,
      "datetime": "2018-08-28 09:44:29",
      "log": [],
      "iterations": 38,
      "stopCondition": "maxTime",
      "generationsWithoutImprovement": 19
    },
    {
      "solutions": "{\"cost\":{\"t44-a70-t66-a29-t6\":0.9531803993,\"t2-a28-t24-a78-t48\":1.3684352151,\"t46-a70-t66-a29-t6\":0.8681500806,\"t2-a32-t30-a79-t54\":1.6996491941,\"t2-a32-t30-a83-t60\":2.0440486337},\"time\":{\"t44-a70-t66-a29-t6\":2.1531531532,\"t2-a28-t24-a78-t48\":1.8851351351,\"t46-a70-t66-a29-t6\":2.286036036,\"t2-a32-t30-a79-t54\":1.8536036036,\"t2-a32-t30-a83-t60\":1.8513513514},\"destinations\":{\"t44-a70-t66-a29-t6\":\"destStart->dest1->dest0->destStart\",\"t2-a28-t24-a78-t48\":\"destStart->dest0->dest1->destStart\",\"t46-a70-t66-a29-t6\":\"destStart->dest1->dest0->destStart\",\"t2-a32-t30-a79-t54\":\"destStart->dest0->dest1->destStart\",\"t2-a32-t30-a83-t60\":\"destStart->dest0->dest1->destStart\"}}",
      "hypervolume": "{\"0.0\":0.0,\"1.917724371\":1.8588746633,\"3.784525156\":1.9393468248,\"5.6032261848\":1.9393468248,\"7.4795296192\":1.9393468248,\"9.3395354748\":1.9393468248,\"11.2224683762\":1.9441443319,\"13.0618655682\":1.9441443319,\"14.9371478558\":1.944319162,\"16.8372206688\":1.944319162,\"18.711363554\":1.944319162,\"20.5971999168\":1.944319162,\"22.4713890553\":1.944319162,\"24.3311095238\":1.944319162,\"26.2115216255\":1.944319162,\"28.0816214085\":1.944319162,\"29.9610683918\":1.944319162,\"31.8735718727\":1.944319162,\"33.7388231754\":1.944319162,\"35.5803747177\":1.944319162,\"37.4480707645\":1.944319162,\"39.2778673172\":1.944319162,\"41.1283400059\":1.944319162,\"42.9998083115\":1.944319162,\"44.9185521603\":1.944319162,\"46.787488699\":1.944319162,\"48.6507077217\":1.944319162,\"50.5330672264\":1.944319162,\"52.4034771919\":1.944319162,\"54.2591354847\":1.944319162,\"56.1331655979\":1.944319162,\"58.0142798424\":1.944319162,\"59.8978028297\":1.944319162,\"61.7781794071\":1.944319162,\"63.6491761208\":1.944319162,\"65.5104076862\":1.944319162,\"67.4115056992\":1.944319162,\"69.312743187\":1.944319162,\"71.1996903419\":1.944319162}",
      "optimizationTime": 71.58107018470764,
      "datetime": "2018-08-28 09:45:40",
      "log": [],
      "iterations": 38,
      "stopCondition": "maxTime",
      "generationsWithoutImprovement": 30
    },
    {
      "solutions": "{\"cost\":{\"t2-a28-t24-a78-t48\":1.3684352151,\"t46-a70-t66-a29-t6\":0.8681500806,\"t44-a70-t66-a29-t6\":0.9531803993,\"t2-a32-t30-a79-t54\":1.6996491941},\"time\":{\"t2-a28-t24-a78-t48\":1.8851351351,\"t46-a70-t66-a29-t6\":2.286036036,\"t44-a70-t66-a29-t6\":2.1531531532,\"t2-a32-t30-a79-t54\":1.8536036036},\"destinations\":{\"t2-a28-t24-a78-t48\":\"destStart->dest0->dest1->destStart\",\"t46-a70-t66-a29-t6\":\"destStart->dest1->dest0->destStart\",\"t44-a70-t66-a29-t6\":\"destStart->dest1->dest0->destStart\",\"t2-a32-t30-a79-t54\":\"destStart->dest0->dest1->destStart\"}}",
      "hypervolume": "{\"0.0\":0.0,\"1.8839831352\":1.8036944062,\"3.7310948372\":1.8588746633,\"5.6208300591\":1.8588746633,\"7.4779791832\":1.8588746633,\"9.4836406708\":1.8588746633,\"11.3152551651\":1.8588746633,\"13.1807744503\":1.8588746633,\"15.0096225739\":1.9382486219,\"16.8812608719\":1.9382486219,\"18.7492644787\":1.9393468248,\"20.6453816891\":1.9393468248,\"22.5051839352\":1.9393468248,\"24.3921883106\":1.9393468248,\"26.234046936\":1.9393468248,\"28.0992159843\":1.9393468248,\"29.9704873562\":1.9393468248,\"31.8199577332\":1.9393468248,\"33.6266174316\":1.9393468248,\"35.4960405827\":1.9393468248,\"37.3482892513\":1.9393468248,\"39.1779484749\":1.9393468248,\"41.0221633911\":1.9393468248,\"42.9038705826\":1.9393468248,\"44.7225348949\":1.9393468248,\"46.5713448524\":1.9393468248,\"48.4431121349\":1.9393468248,\"50.3430378437\":1.9393468248,\"52.1647233963\":1.9393468248,\"54.0083255768\":1.9393468248,\"55.8806905746\":1.9393468248,\"57.7439510822\":1.9393468248,\"59.6006288528\":1.9393468248,\"61.486771822\":1.9393468248,\"63.344802618\":1.9393468248,\"65.2479710579\":1.9393468248,\"67.0903124809\":1.9393468248,\"68.9672014713\":1.9393468248,\"70.8454518318\":1.9393468248}",
      "optimizationTime": 71.09234833717346,
      "datetime": "2018-08-28 09:46:52",
      "log": [],
      "iterations": 38,
      "stopCondition": "maxTime",
      "generationsWithoutImprovement": 28
    },
    {
      "solutions": "{\"cost\":{\"t44-a70-t66-a29-t6\":0.9531803993,\"t2-a28-t24-a78-t48\":1.3684352151,\"t46-a70-t66-a29-t6\":0.8681500806,\"t2-a32-t30-a79-t54\":1.6996491941,\"t2-a4-t30-a55-t60\":2.1565019261},\"time\":{\"t44-a70-t66-a29-t6\":2.1531531532,\"t2-a28-t24-a78-t48\":1.8851351351,\"t46-a70-t66-a29-t6\":2.286036036,\"t2-a32-t30-a79-t54\":1.8536036036,\"t2-a4-t30-a55-t60\":1.8513513514},\"destinations\":{\"t44-a70-t66-a29-t6\":\"destStart->dest1->dest0->destStart\",\"t2-a28-t24-a78-t48\":\"destStart->dest0->dest1->destStart\",\"t46-a70-t66-a29-t6\":\"destStart->dest1->dest0->destStart\",\"t2-a32-t30-a79-t54\":\"destStart->dest0->dest1->destStart\",\"t2-a4-t30-a55-t60\":\"destStart->dest0->dest1->destStart\"}}",
      "hypervolume": "{\"0.0\":0.0,\"1.9149343967\":1.8588746633,\"3.7330825329\":1.8588746633,\"5.6339526176\":1.8588746633,\"7.4684846401\":1.9382486219,\"9.3542954922\":1.9382486219,\"11.2414567471\":1.9382486219,\"13.1494510174\":1.9382486219,\"15.0571196079\":1.9382486219,\"16.9574465752\":1.9382486219,\"18.8296444416\":1.9382486219,\"20.7086222172\":1.9393468248,\"22.5990543365\":1.9393468248,\"24.4392375946\":1.9393468248,\"26.32477808\":1.9393468248,\"28.226085186\":1.9440658888,\"30.0901005268\":1.9440658888,\"31.959338665\":1.9440658888,\"33.8223576546\":1.9440658888,\"35.6896822453\":1.9440658888,\"37.5946106911\":1.9440658888,\"39.4886984825\":1.9440658888,\"41.3713915348\":1.9440658888,\"43.2417860031\":1.9440658888,\"45.1377463341\":1.9440658888,\"46.9881641865\":1.9440658888,\"48.8358132839\":1.9440658888,\"50.6683123112\":1.9440658888,\"52.5069856644\":1.9440658888,\"54.3412349224\":1.9440658888,\"56.1769163609\":1.9440658888,\"58.0150887966\":1.9440658888,\"59.9066050053\":1.9440658888,\"61.7702565193\":1.9440658888,\"63.6059026718\":1.9440658888,\"65.4476716518\":1.9440658888,\"67.3122694492\":1.9440658888,\"69.1758103371\":1.9440658888,\"71.0295557976\":1.9440658888}",
      "optimizationTime": 71.07859420776367,
      "datetime": "2018-08-28 09:48:03",
      "log": [],
      "iterations": 38,
      "stopCondition": "maxTime",
      "generationsWithoutImprovement": 23
    },
    {
      "solutions": "{\"cost\":{\"t44-a70-t66-a29-t6\":0.9531803993,\"t2-a28-t24-a78-t48\":1.3684352151,\"t46-a70-t66-a29-t6\":0.8681500806,\"t2-a32-t30-a79-t54\":1.6996491941},\"time\":{\"t44-a70-t66-a29-t6\":2.1531531532,\"t2-a28-t24-a78-t48\":1.8851351351,\"t46-a70-t66-a29-t6\":2.286036036,\"t2-a32-t30-a79-t54\":1.8536036036},\"destinations\":{\"t44-a70-t66-a29-t6\":\"destStart->dest1->dest0->destStart\",\"t2-a28-t24-a78-t48\":\"destStart->dest0->dest1->destStart\",\"t46-a70-t66-a29-t6\":\"destStart->dest1->dest0->destStart\",\"t2-a32-t30-a79-t54\":\"destStart->dest0->dest1->destStart\"}}",
      "hypervolume": "{\"0.0\":0.0,\"2.0154459476\":1.9346894794,\"3.8377220631\":1.936787713,\"5.6455197334\":1.936787713,\"7.5112934113\":1.936787713,\"9.3576276302\":1.936787713,\"11.2345542908\":1.936787713,\"13.0604431629\":1.936787713,\"14.9277122021\":1.936787713,\"16.7841057777\":1.936787713,\"18.6044905186\":1.9367884342,\"20.4214560986\":1.9367884342,\"22.251329422\":1.9367884342,\"24.0595173836\":1.9367884342,\"25.9573016167\":1.9367884342,\"27.7942488194\":1.9367884342,\"29.6474201679\":1.9367884342,\"31.499330759\":1.9367884342,\"33.2830891609\":1.9382486219,\"35.1282298565\":1.9382486219,\"36.9598407745\":1.9382486219,\"38.779717207\":1.9382486219,\"40.5935885906\":1.9382486219,\"42.4017333984\":1.9382486219,\"44.2406411171\":1.9393468248,\"46.0652294159\":1.9393468248,\"47.9010384083\":1.9393468248,\"49.7539768219\":1.9393468248,\"51.6054909229\":1.9393468248,\"53.4463949203\":1.9393468248,\"55.378493309\":1.9393468248,\"57.2433240414\":1.9393468248,\"59.1370205879\":1.9393468248,\"61.0291221142\":1.9393468248,\"62.9050822258\":1.9393468248,\"64.794680357\":1.9393468248,\"66.6483390331\":1.9393468248,\"68.4652068615\":1.9393468248,\"70.3391819\":1.9393468248}",
      "optimizationTime": 70.59649395942688,
      "datetime": "2018-08-28 09:49:13",
      "log": [],
      "iterations": 38,
      "stopCondition": "maxTime",
      "generationsWithoutImprovement": 14
    }
  ]
}